{
  "type": "service_account",
  "project_id": "spring-boot-fcm-c347a",
  "private_key_id": "a6a1cadee86fe49e005fa3bd5c6efed4a666e8df",
  "private_key": "-----BEGIN PRIVATE KEY-----\nMIIEvQIBADANBgkqhkiG9w0BAQEFAASCBKcwggSjAgEAAoIBAQCuGjVGqlf8ASwy\nNFGG2P9xyGkM1bUoyHfN8Y26U0AJ/TgJ8N9gQaTccXLKDbU/m2vMf4SUYtMym/Ke\nXFw8trtAeuw/ytf2zN3Kr/j9zFzEONp8FnDn9/k67B12qvsH6twnHgU850g2XErN\n942chg9II6kc94jJBkE0+82LmaBMxBVRqyMV3JGKG++Wt2S2yG6Rekaecu8Bu7fl\nnKwe0jNJ3y1Uq3ZlleA/cdSRB1MiYnkASBe4zJxhS4SvTy1uvIUq/e7boImRhRZL\nw21z53wwhw0Nh9wmCv6JSppmw9jCqvDu6JLA6gf37FiQl6nakTtsuAbcMfl8JqV/\nmE9BJvWtAgMBAAECggEAJpIJ0YD1gw/jca/ji+NRHC0RENXbj5Bx8j8cbfX5jvz5\nSEKDyjhgxLGhg5/r0o6lICX0AkeukFy6MFk32f+FlnBlHHDczYFvdXLsz5VRy+ro\nhGsYUlu+bE5Y7KxOdt+SLFxbPrXiaqChteWtCsssYYf89Dzmodpv4cQTMmUzfS3p\nGkaPv9WkbryoNCX0UpLceT28iF8ueEAj9ZRH2D9juob+18H9vYYr+1WDV53frBJe\n8TTqOhTIBltekiEeGt/XVYbL9zrQejgeSjg6VLqIQZVOLLxm023SQwd3+AoS1jZu\ng74WPBimMzn2eRmqCX5eBX1u5SxAmL88h72x+1VWxQKBgQD0d3uPkMEQwOiKZNR7\n1B/OxGCVIgX4cHSyJVHyYEMsvHrGI2212iim/98t/M65qYeIoz6mXxo2kUtg+8HV\nIOcwtHXs06/7jqaP5/DwupJvA0uPjPOfcX2exyV4IjFTVOi8GvO61D8naqmMS5pN\nanFDZdxXkbWlRyJpsWjJXUUsUwKBgQC2UOiSS93o1/4Ts/AOD+Y61pCpLe7F8sEe\n70bx4CTGcY5X39rBxRFDcskIoO4UzzLeqxQ1VLTz1hym24eOt3xRz8zVuJ3rG6G8\n/ZCRnmSRZcS+FnoLKYMQk00on8PAi0UclK6UfwiIkem1WMC408Yx5dNEdxeZ2pEk\n61zcJU8V/wKBgE0WqFX7NYZM7odFiGOL3oPbFQGx+uP+wi2y6wZdKJGg1a5JWb0w\nkAUpRn0/7QhK1zxVDdp0vtVaN8TbXqIQgBaxsUX+8s2GjCtw3l9q1eY/ycH4lpI+\nvXgmIECjt54pdkJq1VSivU92qQReisfCuvif1D2g6wC1T7q4gOyOhtOVAoGAOD0N\nANPWSBUYkwtWaYAODOhTB1zb4sPXPqugvsvdjDlLJ2AuIsefY6bszHSX/GNN1dIA\nEdNnXjAV9oKRdjyzZKktDmA8lmGXqqytA75QV2mFHv3f98F+ZIaLrpRZ1fMgBoj2\nsWfeQgKAjSgritgIsyup19zEsvjw/Op9Yos/shECgYEAlGWELfi2SsMky7II5z/M\n828h31SyUGWY+qME4QqyPT5CDCPM1NI88OzEbvxyEN9Ja1MOX8sNaMNLD9ictz7P\nC8OcfbWWLZCSTaXytf6fGmsRbEUHM0+JkRfekmI/pf3h6XO8Z5KbZP+zswYlp/Q7\nzyyhVqHyiKkkCEO+lnCHyMk=\n-----END PRIVATE KEY-----\n",
  "client_email": "firebase-adminsdk-pj6cy@spring-boot-fcm-c347a.iam.gserviceaccount.com",
  "client_id": "109355489190474005799",
  "auth_uri": "https://accounts.google.com/o/oauth2/auth",
  "token_uri": "https://oauth2.googleapis.com/token",
  "auth_provider_x509_cert_url": "https://www.googleapis.com/oauth2/v1/certs",
  "client_x509_cert_url": "https://www.googleapis.com/robot/v1/metadata/x509/firebase-adminsdk-pj6cy%40spring-boot-fcm-c347a.iam.gserviceaccount.com",
  "universe_domain": "googleapis.com"
}
